<svg width="160" height="80" viewBox="0 0 160 80" fill="none" xmlns="http://www.w3.org/2000/svg">
<rect x="0.5" y="0.5" width="159" height="79" stroke="black" stroke-opacity="0.2"/>
<path d="M13.4259 52.3227L7.03891 41.2597C6.79334 40.8344 6.66406 40.3519 6.66406 39.8607C6.66406 39.3696 6.79334 38.8871 7.03891 38.4618L13.4259 27.3991C13.6715 26.9737 14.0248 26.6204 14.4502 26.3748C14.8756 26.1292 15.3581 26 15.8493 26H28.6233C29.1145 26 29.597 26.1293 30.0223 26.3749C30.4477 26.6205 30.8009 26.9737 31.0465 27.3991L37.4335 38.4618C37.6791 38.8872 37.8084 39.3697 37.8084 39.8609C37.8084 40.352 37.6791 40.8346 37.4335 41.2599L31.0465 52.3224C30.8009 52.7478 30.4477 53.101 30.0223 53.3466C29.597 53.5922 29.1145 53.7215 28.6233 53.7215H15.8493C15.3581 53.7216 14.8755 53.5923 14.4501 53.3467C14.0247 53.1011 13.6715 52.7478 13.4259 52.3224V52.3227Z" fill="#8A8F98"/>
<path opacity="0.07" d="M18.6666 37.3989L16.9609 39.0996L18.4104 40.5493L16.9753 43.0983L27.8356 53.9588L30.4673 53.9593L35.6068 44.7287L27.4687 36.5898L18.6666 37.3989Z" fill="black"/>
<path d="M27.2831 36.5198H17.2011C17.0389 36.5198 16.9062 36.6526 16.9062 36.8152V38.8994C16.9062 39.0614 17.0391 39.1943 17.2011 39.1943H27.2831C27.4454 39.1943 27.5783 39.0614 27.5783 38.8994V36.8147C27.5783 36.6526 27.4456 36.5195 27.2834 36.5195L27.2831 36.5198ZM25.7223 38.4602C25.5624 38.4598 25.4093 38.396 25.2963 38.2829C25.1834 38.1698 25.1198 38.0166 25.1196 37.8568C25.1195 37.7776 25.135 37.6992 25.1653 37.6261C25.1956 37.5529 25.24 37.4865 25.2959 37.4305C25.3519 37.3745 25.4184 37.3301 25.4915 37.2998C25.5647 37.2696 25.6431 37.254 25.7223 37.2541C26.0556 37.2541 26.3257 37.5225 26.3257 37.8568C26.3257 37.936 26.3101 38.0145 26.2797 38.0877C26.2494 38.1609 26.205 38.2274 26.1489 38.2835C26.0929 38.3395 26.0264 38.3839 25.9532 38.4143C25.88 38.4446 25.8015 38.4602 25.7223 38.4602V38.4602ZM27.2831 40.5262L17.2011 40.5267C17.0389 40.5267 16.9062 40.6595 16.9062 40.8221V42.906C16.9062 43.0681 17.0391 43.2012 17.2011 43.2012H27.2831C27.4454 43.2012 27.5783 43.0681 27.5783 42.906V40.8216C27.5783 40.6595 27.4456 40.5262 27.2834 40.5262H27.2831ZM25.7223 42.4669C25.5624 42.4665 25.4092 42.4028 25.2963 42.2897C25.1833 42.1765 25.1198 42.0233 25.1196 41.8634C25.1195 41.7843 25.135 41.7059 25.1653 41.6327C25.1956 41.5596 25.24 41.4931 25.2959 41.4371C25.3519 41.3812 25.4184 41.3368 25.4915 41.3065C25.5647 41.2762 25.6431 41.2607 25.7223 41.2607C25.8035 41.2575 25.8845 41.2707 25.9605 41.2995C26.0365 41.3283 26.1059 41.3722 26.1645 41.4285C26.2231 41.4848 26.2698 41.5524 26.3016 41.6272C26.3335 41.702 26.3499 41.7824 26.3499 41.8637C26.3499 41.945 26.3335 42.0254 26.3016 42.1002C26.2698 42.175 26.2231 42.2425 26.1645 42.2988C26.1059 42.3552 26.0365 42.399 25.9605 42.4279C25.8845 42.4567 25.8035 42.4699 25.7223 42.4666" fill="white"/>
<g clip-path="url(#clip0_9072_14388)">
<path d="M116.057 45.1258C115.175 45.1463 114.298 44.9867 113.48 44.6568C112.661 44.327 111.918 43.8337 111.297 43.2072C110.676 42.5806 110.188 41.834 109.865 41.0129C109.542 40.1917 109.39 39.3133 109.417 38.4313C109.394 37.555 109.55 36.6832 109.874 35.8688C110.199 35.0545 110.685 34.3145 111.304 33.6939C111.921 33.0629 112.662 32.5661 113.48 32.2347C114.298 31.9032 115.175 31.7443 116.057 31.7679C116.941 31.7461 117.818 31.9225 118.624 32.284C119.431 32.6455 120.146 33.183 120.717 33.857L119.575 34.9987C119.157 34.4693 118.621 34.0439 118.011 33.7556C117.401 33.4673 116.732 33.3239 116.057 33.3367C115.4 33.3206 114.746 33.4391 114.135 33.6848C113.525 33.9305 112.971 34.2983 112.508 34.7657C112.035 35.248 111.666 35.822 111.423 36.4524C111.18 37.0828 111.068 37.7562 111.095 38.4313C111.066 39.109 111.176 39.7854 111.42 40.4186C111.663 41.0518 112.033 41.6283 112.508 42.1125C112.97 42.5813 113.524 42.9501 114.134 43.1959C114.745 43.4418 115.399 43.5594 116.057 43.5415C116.804 43.5379 117.54 43.3672 118.212 43.042C118.884 42.7168 119.475 42.2453 119.94 41.6621L121.136 42.827C120.531 43.5507 119.769 44.127 118.908 44.5123C118.014 44.9225 117.041 45.1319 116.057 45.1258V45.1258ZM124.111 32.0553V44.8462H122.464V32.0553H124.111ZM125.524 40.4661C125.506 39.853 125.61 39.2424 125.828 38.6694C126.047 38.0963 126.376 37.572 126.798 37.1266C127.215 36.6942 127.718 36.3535 128.274 36.1262C128.831 35.8989 129.428 35.7899 130.029 35.8063C130.627 35.7892 131.223 35.8979 131.776 36.1253C132.33 36.3527 132.83 36.6939 133.244 37.1266C133.67 37.5694 134.003 38.093 134.223 38.6666C134.443 39.2402 134.546 39.8521 134.525 40.4661C134.548 41.0803 134.446 41.6928 134.226 42.2667C134.006 42.8406 133.672 43.364 133.244 43.8055C132.831 44.2398 132.332 44.582 131.778 44.8095C131.223 45.0371 130.627 45.1449 130.029 45.1258C129.428 45.1441 128.83 45.0361 128.273 44.8086C127.717 44.5812 127.214 44.2395 126.798 43.8055C126.376 43.3601 126.047 42.8358 125.828 42.2628C125.61 41.6897 125.506 41.0791 125.524 40.4661V40.4661ZM127.171 40.4661C127.133 41.306 127.429 42.1268 127.994 42.7493C128.255 43.0267 128.571 43.2477 128.921 43.3988C129.271 43.5498 129.648 43.6277 130.029 43.6277C130.41 43.6277 130.787 43.5498 131.137 43.3988C131.487 43.2477 131.802 43.0267 132.064 42.7493C132.629 42.1268 132.925 41.306 132.887 40.4661C132.923 39.631 132.627 38.8157 132.064 38.1983C131.805 37.9168 131.49 37.6922 131.14 37.5385C130.79 37.3848 130.411 37.3054 130.029 37.3054C129.646 37.3054 129.268 37.3848 128.918 37.5385C128.568 37.6922 128.253 37.9168 127.994 38.1983C127.431 38.8157 127.135 39.631 127.171 40.4661V40.4661ZM143.612 44.8462H142.059V43.6269H141.981C141.703 44.0827 141.306 44.4535 140.832 44.6986C140.339 44.9779 139.782 45.125 139.216 45.1258C138.762 45.1552 138.307 45.0888 137.88 44.931C137.453 44.7731 137.064 44.5272 136.739 44.2094C136.123 43.4815 135.814 42.5433 135.877 41.5922V36.1015H137.515V41.4912C137.481 41.783 137.514 42.0788 137.611 42.356C137.708 42.6333 137.867 42.8848 138.076 43.0914C138.285 43.298 138.538 43.4543 138.816 43.5485C139.095 43.6426 139.391 43.6721 139.682 43.6347C139.997 43.6401 140.308 43.5729 140.592 43.4382C140.877 43.3035 141.126 43.1049 141.321 42.8581C141.764 42.3246 141.998 41.6486 141.981 40.9553V36.1015H143.627L143.612 44.8462ZM149.172 45.1258C148.614 45.1257 148.061 45.0049 147.553 44.7717C147.045 44.5384 146.594 44.1983 146.229 43.7745C145.413 42.8674 144.969 41.686 144.986 40.4661C144.96 39.2525 145.393 38.0736 146.198 37.1654C146.56 36.7378 147.011 36.3945 147.519 36.1597C148.028 35.9249 148.581 35.8043 149.141 35.8063C149.754 35.796 150.36 35.9374 150.904 36.218C151.403 36.464 151.827 36.8395 152.131 37.3052H152.201L152.162 36.1015V32.0553H153.801V44.8462H152.248V43.6269H152.178C151.874 44.0927 151.45 44.4682 150.951 44.7142C150.402 44.9973 149.79 45.1388 149.172 45.1258V45.1258ZM149.444 43.6269C149.819 43.639 150.192 43.5664 150.535 43.4145C150.878 43.2625 151.182 43.0352 151.425 42.7493C151.968 42.1166 152.246 41.2988 152.201 40.4661C152.239 39.6391 151.961 38.8287 151.425 38.1983C151.183 37.9105 150.879 37.6809 150.536 37.5263C150.193 37.3717 149.82 37.2961 149.444 37.3052C149.069 37.2994 148.697 37.3765 148.354 37.5308C148.012 37.6852 147.708 37.9131 147.464 38.1983C146.927 38.8287 146.65 39.6391 146.687 40.4661C146.644 41.2938 146.922 42.1063 147.464 42.7338C147.708 43.019 148.012 43.2469 148.354 43.4013C148.697 43.5557 149.069 43.6327 149.444 43.6269V43.6269Z" fill="#8A8F98"/>
<path d="M53.7256 45.1257C51.7931 45.1321 49.9359 44.3767 48.5564 43.0234C47.1768 41.67 46.3861 39.8276 46.3555 37.8954C46.3861 35.9631 47.1768 34.1207 48.5564 32.7673C49.9359 31.414 51.7931 30.6587 53.7256 30.665C54.6464 30.6497 55.5611 30.8183 56.4159 31.1611C57.2707 31.5038 58.0485 32.0137 58.7037 32.6609L57.2981 34.0511C56.3396 33.1282 55.056 32.6204 53.7256 32.6376C53.0367 32.6355 52.3543 32.7704 51.7181 33.0345C51.0818 33.2985 50.5045 33.6865 50.0195 34.1758C49.5346 34.665 49.1518 35.2458 48.8934 35.8844C48.6351 36.523 48.5062 37.2065 48.5145 37.8954C48.5062 38.5842 48.6351 39.2677 48.8934 39.9063C49.1518 40.5449 49.5346 41.1257 50.0195 41.615C50.5045 42.1042 51.0818 42.4922 51.7181 42.7562C52.3543 43.0203 53.0367 43.1552 53.7256 43.1531C54.4042 43.1809 55.0811 43.0661 55.7125 42.8159C56.344 42.5657 56.9159 42.1859 57.3913 41.7008C58.025 41.0173 58.4059 40.1376 58.4708 39.2078H53.7256V37.243H60.4045C60.4774 37.6505 60.5112 38.0639 60.5055 38.4778C60.5581 40.1821 59.9389 41.8389 58.7814 43.0909C58.13 43.7677 57.3427 44.2988 56.4713 44.6495C55.5999 45.0002 54.6642 45.1625 53.7256 45.1257Z" fill="#8A8F98"/>
<path d="M70.8356 40.4664C70.8612 41.0876 70.7608 41.7076 70.5407 42.2891C70.3205 42.8705 69.9851 43.4015 69.5546 43.85C69.1241 44.2986 68.6073 44.6555 68.0354 44.8993C67.4635 45.1431 66.8481 45.2688 66.2264 45.2688C65.6047 45.2688 64.9893 45.1431 64.4174 44.8993C63.8455 44.6555 63.3287 44.2986 62.8982 43.85C62.4677 43.4015 62.1323 42.8705 61.9121 42.2891C61.692 41.7076 61.5917 41.0876 61.6172 40.4664C61.5917 39.8452 61.692 39.2253 61.9121 38.6438C62.1323 38.0623 62.4677 37.5314 62.8982 37.0828C63.3287 36.6343 63.8455 36.2774 64.4174 36.0335C64.9893 35.7897 65.6047 35.6641 66.2264 35.6641C66.8481 35.6641 67.4635 35.7897 68.0354 36.0335C68.6073 36.2774 69.1241 36.6343 69.5546 37.0828C69.9851 37.5314 70.3205 38.0623 70.5407 38.6438C70.7608 39.2253 70.8612 39.8452 70.8356 40.4664V40.4664ZM68.8164 40.4664C68.8507 40.1057 68.8092 39.7417 68.6946 39.3979C68.58 39.0541 68.3949 38.738 68.1511 38.4699C67.9072 38.2019 67.6101 37.9877 67.2786 37.8411C66.9472 37.6945 66.5888 37.6188 66.2264 37.6188C65.864 37.6188 65.5056 37.6945 65.1742 37.8411C64.8428 37.9877 64.5456 38.2019 64.3018 38.4699C64.0579 38.738 63.8728 39.0541 63.7582 39.3979C63.6436 39.7417 63.6021 40.1057 63.6364 40.4664C63.6021 40.8272 63.6436 41.1911 63.7582 41.5349C63.8728 41.8788 64.0579 42.1948 64.3018 42.4629C64.5456 42.731 64.8428 42.9452 65.1742 43.0918C65.5056 43.2383 65.864 43.314 66.2264 43.314C66.5888 43.314 66.9472 43.2383 67.2786 43.0918C67.6101 42.9452 67.9072 42.731 68.1511 42.4629C68.3949 42.1948 68.58 41.8788 68.6946 41.5349C68.8092 41.1911 68.8507 40.8272 68.8164 40.4664V40.4664Z" fill="#8A8F98"/>
<path d="M81.1716 40.4664C81.1971 41.0876 81.0968 41.7076 80.8766 42.2891C80.6565 42.8705 80.3211 43.4015 79.8906 43.85C79.46 44.2986 78.9433 44.6555 78.3713 44.8993C77.7994 45.1431 77.1841 45.2688 76.5624 45.2688C75.9406 45.2688 75.3253 45.1431 74.7534 44.8993C74.1814 44.6555 73.6647 44.2986 73.2341 43.85C72.8036 43.4015 72.4682 42.8705 72.2481 42.2891C72.0279 41.7076 71.9276 41.0876 71.9531 40.4664C71.9276 39.8452 72.0279 39.2253 72.2481 38.6438C72.4682 38.0623 72.8036 37.5314 73.2341 37.0828C73.6647 36.6343 74.1814 36.2774 74.7534 36.0335C75.3253 35.7897 75.9406 35.6641 76.5624 35.6641C77.1841 35.6641 77.7994 35.7897 78.3713 36.0335C78.9433 36.2774 79.46 36.6343 79.8906 37.0828C80.3211 37.5314 80.6565 38.0623 80.8766 38.6438C81.0968 39.2253 81.1971 39.8452 81.1716 40.4664V40.4664ZM79.1524 40.4664C79.1801 40.1089 79.1335 39.7495 79.0157 39.4109C78.8979 39.0722 78.7114 38.7615 78.4678 38.4983C78.2243 38.2352 77.9289 38.0252 77.6003 37.8816C77.2718 37.738 76.9171 37.6639 76.5585 37.6639C76.1999 37.6639 75.8452 37.738 75.5166 37.8816C75.188 38.0252 74.8927 38.2352 74.6491 38.4983C74.4055 38.7615 74.219 39.0722 74.1012 39.4109C73.9834 39.7495 73.9369 40.1089 73.9646 40.4664C73.9369 40.8239 73.9834 41.1833 74.1012 41.522C74.219 41.8607 74.4055 42.1714 74.6491 42.4345C74.8927 42.6977 75.188 42.9077 75.5166 43.0513C75.8452 43.1949 76.1999 43.269 76.5585 43.269C76.9171 43.269 77.2718 43.1949 77.6003 43.0513C77.9289 42.9077 78.2243 42.6977 78.4678 42.4345C78.7114 42.1714 78.8979 41.8607 79.0157 41.522C79.1335 41.1833 79.1801 40.8239 79.1524 40.4664V40.4664Z" fill="#8A8F98"/>
<path d="M91.2423 36.1004V44.4568C91.2423 47.8895 89.1997 49.3029 86.7922 49.3029C85.9062 49.3078 85.0388 49.049 84.3003 48.5594C83.5618 48.0698 82.9856 47.3717 82.6451 46.5537L84.4391 45.7771C84.6198 46.2532 84.9376 46.6652 85.3522 46.961C85.7669 47.2567 86.2598 47.4231 86.7689 47.439C88.3222 47.439 89.2696 46.4838 89.2696 44.7053V44.0374H89.223C88.9124 44.388 88.5292 44.6668 88.1001 44.8545C87.671 45.0423 87.2061 45.1345 86.7379 45.1247C85.502 45.1247 84.3168 44.6338 83.4429 43.7599C82.5691 42.886 82.0781 41.7008 82.0781 40.465C82.0781 39.2291 82.5691 38.0439 83.4429 37.17C84.3168 36.2962 85.502 35.8052 86.7379 35.8052C87.2045 35.7966 87.6677 35.8878 88.0962 36.0726C88.5248 36.2574 88.909 36.5317 89.223 36.877H89.2929V36.1004H91.2423ZM89.4327 40.496C89.4613 40.1439 89.4186 39.7897 89.3074 39.4544C89.1961 39.1191 89.0186 38.8097 88.7852 38.5444C88.5519 38.2792 88.2676 38.0637 87.9492 37.9106C87.6308 37.7576 87.2849 37.6702 86.932 37.6536C86.5736 37.6665 86.2213 37.7506 85.8958 37.901C85.5702 38.0515 85.2778 38.2652 85.0356 38.5297C84.7935 38.7943 84.6064 39.1044 84.4853 39.442C84.3642 39.7796 84.3115 40.1379 84.3303 40.496C84.3137 40.8518 84.3681 41.2072 84.4904 41.5417C84.6127 41.8761 84.8005 42.1828 85.0428 42.4439C85.285 42.7049 85.5768 42.915 85.9012 43.062C86.2256 43.2089 86.576 43.2897 86.932 43.2996C87.2835 43.2872 87.6288 43.2035 87.947 43.0538C88.2652 42.9042 88.5498 42.6915 88.7836 42.4287C89.0173 42.166 89.1953 41.8585 89.3069 41.525C89.4185 41.1915 89.4613 40.8388 89.4327 40.4883V40.496Z" fill="#8A8F98"/>
<path d="M94.8394 31.1641V44.8481H92.7891V31.1641H94.8394Z" fill="#8A8F98"/>
<path d="M102.917 42.0036L104.516 43.0909C104.089 43.7283 103.511 44.2504 102.834 44.6108C102.157 44.9712 101.401 45.1587 100.633 45.1567C100.023 45.1654 99.4171 45.0502 98.8525 44.818C98.288 44.5859 97.7764 44.2415 97.3488 43.8059C96.9211 43.3703 96.5863 42.8524 96.3646 42.2837C96.1429 41.7149 96.039 41.1071 96.059 40.497C95.9681 39.4481 96.2663 38.4024 96.8968 37.5593C97.5274 36.7162 98.4461 36.1346 99.4779 35.9254C100.51 35.7161 101.582 35.8939 102.492 36.4248C103.401 36.9556 104.083 37.8025 104.408 38.8039L104.617 39.3398L98.4044 41.9104C98.598 42.3456 98.9174 42.7128 99.3216 42.9647C99.7258 43.2166 100.196 43.3417 100.672 43.3239C101.128 43.3135 101.573 43.1868 101.966 42.9557C102.359 42.7246 102.686 42.3969 102.917 42.0036V42.0036ZM98.0161 40.3261L102.194 38.602C102.027 38.2927 101.774 38.0386 101.465 37.8704C101.156 37.7022 100.805 37.6273 100.455 37.6545C100.119 37.6695 99.7896 37.7505 99.4853 37.8929C99.181 38.0353 98.9078 38.2364 98.6812 38.4845C98.4547 38.7327 98.2794 39.0231 98.1653 39.3391C98.0511 39.6551 98.0004 39.9905 98.0161 40.3261V40.3261Z" fill="#8A8F98"/>
</g>
<defs>
<clipPath id="clip0_9072_14388">
<rect width="107.445" height="18.6389" fill="white" transform="translate(46.3555 30.6641)"/>
</clipPath>
</defs>
</svg>
