<svg width="160" height="80" viewBox="0 0 160 80" fill="none" xmlns="http://www.w3.org/2000/svg">
<rect x="0.5" y="0.5" width="159" height="79" stroke="black" stroke-opacity="0.2"/>
<path d="M25.3269 50.9657C25.3266 51.3422 25.1769 51.7032 24.9107 51.9694C24.6445 52.2356 24.2835 52.3853 23.9071 52.3856H8.75693C8.38045 52.3856 8.01936 52.2362 7.75294 51.9702C7.48651 51.7042 7.33654 51.3434 7.33594 50.9669V28.7921C7.33579 28.6054 7.37244 28.4206 7.4438 28.2481C7.51516 28.0757 7.61982 27.9189 7.75181 27.787C7.88379 27.655 8.0405 27.5503 8.21297 27.479C8.38544 27.4076 8.57028 27.3709 8.75693 27.3711H18.4799L25.3269 34.3539V50.9657Z" fill="#8A8F98"/>
<path d="M19.2305 34.1689L25.324 39.9932V34.3103H19.9263C19.6906 34.313 19.4583 34.2545 19.252 34.1406L19.2305 34.1689Z" fill="#2B2C31"/>
<path d="M25.3284 34.342H19.916C19.5395 34.3417 19.1785 34.192 18.9123 33.9258C18.6461 33.6596 18.4964 33.2986 18.4961 32.9221V27.332L25.3284 34.342Z" fill="#ACB5C5"/>
<path fill-rule="evenodd" clip-rule="evenodd" d="M20.9949 47.7738H11.6328V39.6562H20.9949V47.7738ZM16.8959 40.8272V42.2482H19.8443V40.8295L16.8959 40.8272ZM16.8959 43.1431V44.5008H19.8443V43.1363L16.8959 43.1431ZM16.8959 45.3663V46.6232H19.8443V45.3595L16.8959 45.3663ZM15.7385 46.6164V45.3595H12.7913V46.6164H15.7385ZM15.7385 44.4861V43.1363H12.7913V44.4929L15.7385 44.4861ZM15.7385 42.2629V40.8272H12.7913V42.2482L15.7385 42.2629Z" fill="white"/>
<path d="M57.3613 39.8853C57.3613 38.1046 56.0195 36.8872 54.4616 36.8872C52.9037 36.8872 51.5608 38.1046 51.5608 39.8853C51.5608 41.648 52.9037 42.8835 54.4616 42.8835C56.0195 42.8835 57.3613 41.6458 57.3613 39.8853ZM59.6195 39.8853C59.6195 42.7341 57.3036 44.8339 54.4604 44.8339C51.6185 44.8339 49.3025 42.7341 49.3025 39.8853C49.3025 37.0162 51.6185 34.9368 54.4616 34.9368C57.3036 34.9368 59.6195 37.0162 59.6195 39.8853ZM68.4883 39.8853C68.4883 38.1046 67.1465 36.8872 65.5886 36.8872C64.0307 36.8872 62.6889 38.1046 62.6889 39.8853C62.6889 41.648 64.0307 42.8835 65.5886 42.8835C67.1465 42.8835 68.4883 41.6458 68.4883 39.8853ZM70.7465 39.8853C70.7465 42.7341 68.4306 44.8339 65.5886 44.8339C62.7466 44.8339 60.4295 42.7341 60.4295 39.8853C60.4295 37.0185 62.7466 34.9368 65.5886 34.9368C68.4306 34.9368 70.7476 37.0162 70.7476 39.8853H70.7465ZM79.4274 39.9023C79.4274 38.16 78.2191 36.8861 76.6827 36.8861C75.1237 36.8861 73.8193 38.16 73.8193 39.9023C73.8193 41.6277 75.1237 42.8835 76.6816 42.8835C78.2191 42.8835 79.4274 41.6277 79.4274 39.9034V39.9023ZM81.4119 35.2354V44.1201C81.4119 47.7744 79.1718 49.2678 76.5244 49.2678C75.5621 49.2835 74.6166 49.0152 73.8061 48.4964C72.9956 47.9777 72.3559 47.2314 71.9672 46.3511L73.9324 45.5637C74.2831 46.3692 75.1407 47.3196 76.5232 47.3196C78.2169 47.3196 79.2668 46.3126 79.2668 44.4187V43.706H79.1876C78.683 44.3067 77.7089 44.8317 76.4802 44.8317C73.9098 44.8317 71.5543 42.6764 71.5543 39.9034C71.5543 37.109 73.9098 34.9368 76.4802 34.9368C77.7066 34.9368 78.6807 35.4606 79.1887 36.0432H79.2679V35.2377H81.4119V35.2354ZM84.9474 30.0255H82.7446V44.5296H84.9462L84.9474 30.0255ZM88.1344 39.7315L92.73 37.8953C92.4778 37.2764 91.7163 36.8465 90.8226 36.8465C89.6742 36.8465 88.0767 37.8217 88.1344 39.7315ZM93.5299 41.5111L95.2824 42.6357C94.8002 43.3219 94.158 43.8802 93.4115 44.2625C92.665 44.6447 91.8366 44.8393 90.9979 44.8294C88.0767 44.8294 85.8955 42.6572 85.8955 39.8808C85.8955 36.9381 88.096 34.9322 90.7456 34.9322C93.4134 34.9322 94.719 36.9755 95.1466 38.0797L95.3797 38.642L88.5055 41.3821C89.0316 42.3755 89.8507 42.8812 90.9979 42.8812C92.1485 42.8812 92.945 42.3382 93.5299 41.5123V41.5111ZM40.9655 38.5956V36.4958H48.3171C48.3884 36.8612 48.4257 37.2945 48.4257 37.7629C48.4257 39.3378 47.9788 41.286 46.5364 42.673C45.1335 44.0793 43.3414 44.8294 40.9678 44.8294C36.5668 44.8294 32.8672 41.3788 32.8672 37.1452C32.8672 32.9116 36.5668 29.4609 40.9678 29.4609C43.4025 29.4609 45.1357 30.3796 46.4391 31.5777L44.9004 33.0598C43.9659 32.2158 42.6999 31.5608 40.9655 31.5608C37.7524 31.5608 35.2397 34.052 35.2397 37.1452C35.2397 40.2383 37.7524 42.7296 40.9655 42.7296C43.0495 42.7296 44.2363 41.9241 44.9966 41.1921C45.6143 40.5981 46.0193 39.7507 46.18 38.5933L40.9655 38.5956ZM108.596 41.4828C108.596 42.6289 108.175 43.5498 107.335 44.2445C106.481 44.9278 105.445 45.2695 104.226 45.2695C103.14 45.2695 102.184 44.9527 101.354 44.318C100.525 43.6845 99.9516 42.8178 99.6348 41.7204L101.245 41.0631C101.354 41.4523 101.506 41.8064 101.702 42.1232C101.896 42.44 102.123 42.7149 102.378 42.9468C102.646 43.1663 102.939 43.3428 103.256 43.4763C103.573 43.5985 103.908 43.6596 104.262 43.6596C105.03 43.6596 105.658 43.465 106.146 43.0747C106.633 42.6719 106.878 42.1413 106.878 41.4828C106.878 40.9341 106.676 40.4646 106.274 40.0754C105.896 39.6975 105.189 39.331 104.152 38.978C103.104 38.6001 102.452 38.3444 102.195 38.2087C100.806 37.5027 100.11 36.4596 100.11 35.0816C100.11 34.1188 100.495 33.2963 101.263 32.6129C102.043 31.9307 103.001 31.589 104.134 31.589C105.134 31.589 106 31.8447 106.731 32.3572C107.463 32.8573 107.95 33.4852 108.195 34.241L106.622 34.8994C106.474 34.4093 106.164 33.9838 105.743 33.6922C105.317 33.363 104.793 33.1978 104.17 33.1978C103.512 33.1978 102.958 33.3811 102.507 33.7466C102.055 34.0882 101.828 34.5329 101.828 35.0816C101.828 35.5341 102.006 35.9233 102.36 36.2525C102.751 36.5806 103.598 36.9721 104.902 37.4235C106.231 37.8738 107.176 38.4293 107.736 39.0866C108.31 39.7337 108.596 40.5325 108.596 41.4828V41.4828ZM110.33 31.8809H112.012V36.0149L111.938 37.2594H112.012C112.268 36.8193 112.658 36.4539 113.183 36.162C113.691 35.8764 114.264 35.7249 114.847 35.7219C115.943 35.7219 116.785 36.0387 117.37 36.6723C117.967 37.2945 118.266 38.1849 118.266 39.3423V44.9765H116.584V39.6727C116.584 38.0627 115.871 37.2583 114.444 37.2583C113.761 37.2583 113.183 37.5446 112.707 38.1182C112.246 38.6721 111.999 39.3731 112.012 40.0935V44.9765H110.33V31.8809ZM124.266 45.2695C122.949 45.2695 121.864 44.817 121.01 43.9153C120.157 43.0136 119.73 41.8732 119.73 40.4952C119.73 39.1296 120.144 37.996 120.973 37.0943C121.803 36.179 122.863 35.7219 124.156 35.7219C125.484 35.7219 126.54 36.1552 127.319 37.0207C128.112 37.8738 128.508 39.0753 128.508 40.623L128.49 40.8063H121.449C121.474 41.6842 121.765 42.3913 122.327 42.9276C122.888 43.4639 123.559 43.7331 124.338 43.7331C125.412 43.7331 126.252 43.1969 126.862 42.1232L128.362 42.8552C127.978 43.5917 127.395 44.2061 126.68 44.6292C125.972 45.0557 125.167 45.2695 124.266 45.2695V45.2695ZM121.576 39.417H126.716C126.699 39.1223 126.621 38.8342 126.489 38.5702C126.357 38.3061 126.173 38.0716 125.948 37.8806C125.497 37.4654 124.887 37.2583 124.119 37.2583C123.485 37.2583 122.936 37.4529 122.473 37.8432C122.022 38.2336 121.724 38.7585 121.576 39.4158V39.417ZM134.161 45.2695C132.844 45.2695 131.758 44.817 130.905 43.9153C130.052 43.0136 129.624 41.8732 129.624 40.4952C129.624 39.1296 130.039 37.996 130.868 37.0943C131.698 36.179 132.758 35.7219 134.051 35.7219C135.379 35.7219 136.434 36.1552 137.214 37.0207C138.007 37.8738 138.403 39.0753 138.403 40.623L138.385 40.8063H131.344C131.368 41.6842 131.66 42.3913 132.222 42.9276C132.783 43.4639 133.452 43.7331 134.233 43.7331C135.307 43.7331 136.147 43.1969 136.757 42.1232L138.257 42.8552C137.873 43.592 137.29 44.2065 136.574 44.6292C135.867 45.0557 135.062 45.2695 134.161 45.2695V45.2695ZM131.471 39.417H136.611C136.594 39.1223 136.516 38.8342 136.384 38.5702C136.252 38.3061 136.068 38.0716 135.843 37.8806C135.392 37.4654 134.782 37.2583 134.014 37.2583C133.38 37.2583 132.831 37.4529 132.367 37.8432C131.917 38.2336 131.617 38.7585 131.471 39.4158V39.417ZM143.222 45.1224C142.491 45.1224 141.881 44.8962 141.394 44.4459C140.917 43.9945 140.674 43.3666 140.662 42.5622V37.5502H139.089V36.0149H140.662V33.2714H142.344V36.0149H144.539V37.5513H142.344V42.0134C142.344 42.6108 142.46 43.0204 142.692 43.2387C142.923 43.4458 143.186 43.5498 143.479 43.5498C143.612 43.5498 143.74 43.5385 143.862 43.5136C143.997 43.4763 144.118 43.4344 144.228 43.3858L144.758 44.8849C144.319 45.0432 143.808 45.1224 143.222 45.1224V45.1224ZM153.177 42.4886C153.177 43.2693 152.835 43.9277 152.153 44.464C151.469 45.0003 150.61 45.2695 149.573 45.2695C148.672 45.2695 147.879 45.0376 147.196 44.5737C146.528 44.1175 146.017 43.4659 145.733 42.7081L147.232 42.0689C147.452 42.6052 147.769 43.026 148.184 43.3304C148.61 43.6234 149.073 43.7693 149.573 43.7693C150.111 43.7693 150.555 43.6539 150.908 43.422C151.275 43.1901 151.457 42.9163 151.457 42.5984C151.457 42.0259 151.018 41.605 150.14 41.3369L148.605 40.9522C146.86 40.5144 145.989 39.6726 145.989 38.4293C145.989 37.6124 146.318 36.9596 146.977 36.472C147.648 35.9719 148.501 35.7219 149.537 35.7219C150.329 35.7219 151.043 35.9109 151.677 36.2887C152.324 36.6666 152.774 37.1735 153.031 37.807L151.531 38.4293C151.358 38.0494 151.061 37.7397 150.689 37.5513C150.3 37.3288 149.858 37.2151 149.409 37.2221C148.97 37.2221 148.574 37.3319 148.22 37.5502C147.879 37.7708 147.708 38.039 147.708 38.3557C147.708 38.8682 148.19 39.2337 149.154 39.4532L150.507 39.8005C152.286 40.2395 153.177 41.1355 153.177 42.4886V42.4886Z" fill="#8A8F98"/>
</svg>
