<svg width="160" height="80" viewBox="0 0 160 80" fill="none" xmlns="http://www.w3.org/2000/svg">
<rect x="0.5" y="0.5" width="159" height="79" stroke="black" stroke-opacity="0.2"/>
<path d="M117.348 46.0402C117.926 46.0563 118.501 45.9574 119.041 45.7493C119.58 45.5411 120.073 45.2279 120.49 44.8277L122.047 46.5215C121.019 47.5794 119.592 48.3661 117.375 48.3661C113.573 48.3661 111.117 45.8459 111.117 42.4317C111.103 41.6495 111.246 40.8725 111.538 40.1465C111.83 39.4206 112.264 38.7607 112.815 38.2058C113.367 37.6509 114.024 37.2123 114.748 36.9161C115.472 36.6199 116.248 36.4721 117.031 36.4815C120.806 36.4815 122.947 39.3548 122.759 43.3375H113.833C114.151 44.9903 115.31 46.0482 117.344 46.0482L117.348 46.0402ZM120.064 41.4387C119.821 39.8916 118.9 38.7545 117.053 38.7545C115.338 38.7545 114.142 39.725 113.833 41.4387H120.064ZM58.7498 45.9173L65.6191 38.9396H58.9151V36.7367H68.8058V38.9845L61.9365 45.9596H68.897V48.1506H58.7525L58.7498 45.9173ZM76.6072 46.0416C77.1851 46.0576 77.7605 45.9587 78.2998 45.7506C78.8391 45.5424 79.3317 45.2292 79.749 44.829L81.3093 46.5215C80.2805 47.5794 78.8538 48.3661 76.6363 48.3661C72.8348 48.3661 70.3793 45.8459 70.3793 42.4317C70.3651 41.6495 70.508 40.8725 70.7997 40.1465C71.0914 39.4206 71.5258 38.7607 72.0773 38.2058C72.6287 37.6509 73.286 37.2123 74.01 36.9161C74.7341 36.6199 75.5103 36.4721 76.2925 36.4815C80.0677 36.4815 82.2084 39.3548 82.0207 43.3375H73.0953C73.4126 44.9903 74.5723 46.0482 76.6059 46.0482L76.6072 46.0416ZM79.3259 41.4387C79.0839 39.8916 78.1622 38.7545 76.315 38.7545C74.6 38.7545 73.4034 39.725 73.0953 41.4387H79.3259ZM96.8487 42.4172C96.8487 38.7783 99.5726 36.4867 102.574 36.4867C103.294 36.4771 104.008 36.6253 104.665 36.9209C105.321 37.2165 105.905 37.6523 106.376 38.1978V31.474H108.802V48.1347H106.376V46.548C105.914 47.1157 105.331 47.5723 104.669 47.884C104.007 48.1958 103.283 48.3547 102.552 48.3489C99.6401 48.3489 96.8501 46.0482 96.8501 42.4211L96.8487 42.4172ZM106.512 42.4C106.426 39.2001 102.545 37.6794 100.297 39.9723C98.0494 42.2651 99.689 46.1182 102.893 46.1169C104.977 46.1169 106.511 44.4508 106.511 42.4145L106.512 42.4ZM124.339 45.7202L126.537 44.5804C127.129 45.6383 128.256 46.2769 129.468 46.2465C130.843 46.2465 131.552 45.5404 131.552 44.7417C131.552 43.8161 130.224 43.6231 128.782 43.3269C126.841 42.9302 124.82 42.2757 124.82 39.9286C124.82 38.1264 126.535 36.4616 129.237 36.4854C131.352 36.4854 132.947 37.3317 133.846 38.6963L131.81 39.8149C131.528 39.398 131.145 39.0597 130.696 38.8321C130.247 38.6044 129.748 38.4949 129.245 38.5138C127.94 38.5138 127.261 39.1525 127.261 39.8824C127.261 40.7022 128.314 40.9309 129.964 41.2972C131.842 41.6939 133.97 42.3233 133.97 44.6955C133.97 46.2822 132.595 48.3886 129.346 48.3661C126.966 48.3661 125.295 47.4075 124.331 45.7216L124.339 45.7202ZM140.558 43.077L138.634 45.1755V48.1374H136.208V31.4766H138.634V42.3775L143.786 36.7221H146.741L142.274 41.6145L146.855 48.136H144.108L140.558 43.077ZM89.5021 36.5053C86.6169 36.5053 84.213 38.3763 84.213 41.477V48.1374H86.6857V41.7613C86.6857 39.8903 87.7607 38.773 89.5973 38.773C91.434 38.773 92.3477 39.8916 92.3477 41.7613V48.1136H94.8071V41.4532C94.8071 38.3525 92.3807 36.4815 89.518 36.4815L89.5021 36.5053ZM31.093 33.0343V54.4817H13.3281L31.093 33.0343ZM31.093 25.3359C31.0933 27.6921 30.1579 29.952 28.4923 31.6186C26.8267 33.2851 24.5674 34.2219 22.2112 34.223C19.855 34.2219 17.5957 33.2851 15.9301 31.6186C14.2646 29.952 13.3291 27.6921 13.3294 25.3359H31.093ZM34.0192 54.479C34.0202 52.1238 34.9563 49.8653 36.6218 48.1998C38.2872 46.5344 40.5457 45.5983 42.901 45.5973C45.2562 45.5983 47.5147 46.5344 49.1802 48.1998C50.8456 49.8653 51.7817 52.1238 51.7827 54.479H34.0192ZM34.0192 46.7807V25.3386H51.784L34.0192 46.7807Z" fill="#8A8F98"/>
</svg>
