<svg width="48" height="48" viewBox="0 0 48 48" fill="none" xmlns="http://www.w3.org/2000/svg">
<path d="M20.4016 9.36798L21.0872 8.74545L20.3358 8.20415C19.4342 7.55469 18.3504 7.25 17.1282 7.25C15.487 7.25 14.0759 7.69557 12.9587 8.64033C9.98465 11.0273 7.6285 14.2083 5.87932 18.1576C4.12442 22.052 3.25 26.2543 3.25 30.7555C3.25 33.5044 4.13255 35.8865 5.90336 37.8596L5.91317 37.8706L5.92341 37.8811C7.79813 39.8123 10.2962 40.75 13.3333 40.75C16.2278 40.75 18.6458 39.8844 20.5168 38.1054L20.5224 38.1001L20.5278 38.0947C22.394 36.2463 23.3141 33.8802 23.3141 31.0603C23.3141 28.4605 22.5077 26.2714 20.8588 24.5577C19.2756 22.7721 17.2251 21.8786 14.7692 21.8786C14.103 21.8786 13.4875 21.9406 12.9376 22.0802C13.1501 20.5652 13.7644 18.7658 14.8234 16.6681L14.8234 16.6682L14.8267 16.6615C16.1495 13.9755 18.0046 11.5443 20.4016 9.36798ZM41.7349 9.36798L42.3893 8.77382L41.6966 8.22487C40.8496 7.55372 39.7834 7.25 38.5641 7.25C36.9208 7.25 35.5083 7.69667 34.3905 8.64384C31.4247 11.0928 29.0366 14.2663 27.2183 18.1452L27.2183 18.1451L27.2137 18.1553C25.4581 22.0504 24.5833 26.2535 24.5833 30.7555C24.5833 33.5133 25.5063 35.8991 27.3496 37.8709L27.3495 37.871L27.3593 37.8811C29.234 39.8123 31.7321 40.75 34.7692 40.75C37.6011 40.75 39.9828 39.881 41.8501 38.1054L41.8506 38.105C43.7891 36.2588 44.75 33.8895 44.75 31.0603C44.75 28.4573 43.9416 26.266 42.2886 24.5514C40.6402 22.7732 38.5608 21.8786 36.1026 21.8786C35.4364 21.8786 34.8208 21.9406 34.271 22.0802C34.4835 20.5652 35.0978 18.7658 36.1567 16.6681L36.1567 16.6682L36.16 16.6615C37.4829 13.9755 39.338 11.5443 41.7349 9.36798Z" stroke="url(#paint0_linear_9072_15264)" stroke-width="1.5"/>
<defs>
<linearGradient id="paint0_linear_9072_15264" x1="7.4722" y1="-5.72764" x2="52.6743" y2="5.70553" gradientUnits="userSpaceOnUse">
<stop stop-color="#DEFB9D"/>
<stop offset="0.37" stop-color="#71F79E"/>
<stop offset="0.7" stop-color="#38F9D7"/>
<stop offset="1" stop-color="#89C4FE"/>
</linearGradient>
</defs>
</svg>
